8b7040f563205446201aa09a110d89be CNP-5-200.cnf
e3008243c24355e6436e13c7b63e7d72 CNP-5-1000.cnf
cc7ce654b5ae24e65bf059e88a7c354a CNP-5-1500.cnf
34a817c1c5448e03fe80c8b4c824a839 CNP-5-1100.cnf
c60ea8256b3a3b47e083de379e9f0f9d CNP-5-400.cnf
8c13584a5e672e558a00ba1005f4740d CNP-5-1400.cnf
eed93e60c4f8cc726426ea54e24789c8 CNP-5-700.cnf
e34875ff7ad739b6c0d8debf40031e28 CNP-5-800.cnf
3cd81e3eb1cc0a1831858920feb74848 CNP-5-1200.cnf
fadb2a5e1a4150900b43d4a05854088f CNP-5-0.cnf
c47363c18c36a4e78274ccac7dec0784 CNP-5-1800.cnf
e17c09b8104885865b8551ee027e928b CNP-5-1300.cnf
a42f20fab044427d59797dc3204c2b4d CNP-5-1700.cnf
9b8bbb883f8b61d4a2725c65b201a15f CNP-5-600.cnf
4d2bb98b9c0352d8ba4842ab7c63da94 CNP-5-300.cnf
852d7a77e8dacd46bb2899aff68eae0d CNP-5-100.cnf
f5818658d02a4c0013bb0fbc42b00a2a CNP-5-1600.cnf
9e043e22272d94ef3f208212e4c36327 CNP-5-900.cnf
a85840530895db86fc5d6568b8d34c83 CNP-5-1900.cnf
0d81cd72ac60d37b2ec1a37b883990f1 CNP-5-500.cnf
