d00639acc82bfc246127f50be1c05cf8 cms-scheel-md4-families-r24-c5-p1-5-10-12-18.cnf
8a9d06e87e12c1ccfb4f5f8652d9b26d cms-scheel-md5-families-r24-c5-p6-11-15-16-19.cnf
770fbaf1ed09ee489bb05b4ed90409c5 cms-scheel-md5-families-r24-c7-p1-3-6-10-11-14-15.cnf
389cdfa60fed571280d2c5fe0d69e8ac cms-scheel-md4-families-r24-c6-p0-5-10-11-17-18.cnf
c7393754770c3b04d8d4cec1f02dc202 cms-scheel-md5-families-r24-c11-p1-4-6-9-10-11-13-15-17-18-19.cnf
5042e8cef14e90a9de4c7ccac843c13a cms-scheel-md5-families-r24-c8-p0-3-5-6-14-16-18-19.cnf
bae604c17df6bc6bb9b8db798bd8c778 cms-scheel-md4-families-r24-c6-p2-4-9-16-17-19.cnf
0cf7bc7f92669e6d7fa3e8ad397b3db3 cms-scheel-md4-families-r24-c4-p4-9-13-18.cnf
d2a6cf51ea318462361b351be16038d0 cms-scheel-md4-families-r24-c5-p0-5-11-13-18.cnf
fa81a4afa85b090b9b425d3123b26127 cms-scheel-md5-families-r24-c5-p2-7-8-15-19.cnf
e7ec67e39e1650e43f30af171da0e416 cms-scheel-md4-families-r24-c5-p1-8-13-18-19.cnf
fdf96de27517f68715bdb1998d0f3cbe cms-scheel-md4-families-r24-c8-p2-3-4-5-7-12-16-19.cnf
ac447cc99a100d9a0ca94a4b9d6b25be cms-scheel-md4-families-r24-c5-p5-13-16-17-19.cnf
d1ca56eb12e1487841daa51adce3f029 cms-scheel-md4-families-r24-c4-p6-13-17-19.cnf
d1bbf4cf384fc5972ffb826cad7ee6d2 cms-scheel-md4-families-r24-c5-p1-8-9-16-19.cnf
7241af8b3af19d5813c8ba490f10177b cms-scheel-md5-families-r24-c7-p1-5-6-12-16-18-19.cnf
f5484c604ea719f7b878633a729b0891 cms-scheel-md4-families-r24-c6-p1-9-13-16-18-19.cnf
964d3a259cdbd0668ffbd9ee2ff0e76d cms-scheel-md5-families-r24-c6-p1-4-6-13-14-18.cnf
a0e5db151752ddf066e9ff180724b4f4 cms-scheel-md5-families-r24-c4-p1-3-4-16.cnf
7a86a1a09c0cb87ec7a334adf5cb36f7 cms-scheel-md4-families-r24-c5-p0-7-10-15-19.cnf
